R para Ciencia de Datos
…
## Mamíferos / Mammals (11)

```r
plots %>%
  filter(plot_id == 1) %>%
  inner_join(surveys) %>%
  collect()
```

```
## Joining, by = "plot_id"
```

```
## # A tibble: 1,995 × 10
##    plot_id plot_type         record_id month   day  year species_id sex  
##      <int> <chr>                 <int> <int> <int> <int> <chr>      <chr>
##  1       1 Spectab exclosure         6     7    16  1977 PF         M    
##  2       1 Spectab exclosure         8     7    16  1977 DM         M    
##  3       1 Spectab exclosure         9     7    16  1977 DM         F    
##  4       1 Spectab exclosure        78     8    19  1977 PF         M    
##  5       1 Spectab exclosure        80     8    19  1977 DS         M    
##  6       1 Spectab exclosure       218     9    13  1977 PF         M    
##  7       1 Spectab exclosure       222     9    13  1977 DS         M    
##  8       1 Spectab exclosure       239     9    13  1977 DS         M    
##  9       1 Spectab exclosure       263    10    16  1977 DM         M    
## 10       1 Spectab exclosure       270    10    16  1977 DM         F    
## # … with 1,985 more rows, and 2 more variables: hindfoot_length <dbl>,
## #   weight <dbl>
```
…
left_join(surveys, species) %>%
  filter(taxa == "Rodent") %>%
  group_by(taxa, year, plot_id) %>%
  tally() %>%
  collect()
```

```
## Joining, by = "species_id"
```

```
## # A tibble: 619 × 4
## # Groups:   taxa, year [26]
##    taxa    year plot_id     n
##    <chr>  <int>   <int> <int>
##  1 Rodent  1977       1    22
##  2 Rodent  1977       2    40
##  3 Rodent  1977       3    17
##  4 Rodent  1977       4    22
##  5 Rodent  1977       5    26
##  6 Rodent  1977       6    18
##  7 Rodent  1977       7     9
##  8 Rodent  1977       8    15
##  9 Rodent  1977       9    27
## 10 Rodent  1977      10     4
## # … with 609 more rows
```
…
```
## Joining, by = "plot_id"
```

```
## Joining, by = "species_id"
```

```
## # A tibble: 59 × 3
## # Groups:   plot_type [5]
##    plot_type genus                n
##    <chr>     <chr>            <int>
##  1 Control   Ammospermophilus   125
##  2 Control   Baiomys              1
##  3 Control   Chaetodipus       1902
##  4 Control   Dipodomys         9847
##  5 Control   Neotoma            610
##  6 Control   Onychomys         1481
##  7 Control   Perognathus        435
##  8 Control   Peromyscus         464
##  9 Control   Reithrodontomys    415
## 10 Control   Rodent               5
## # … with 49 more rows
```
…
